{
    "/wp-content/themes/custom-theme/dist/js/app.js": "/wp-content/themes/custom-theme/dist/js/app.js",
    "/wp-content/plugins/custom-block/dist/js/app.js": "/wp-content/plugins/custom-block/dist/js/app.js",
    "/wp-content/plugins/custom-block/dist/css/app.css": "/wp-content/plugins/custom-block/dist/css/app.css",
    "/wp-content/themes/custom-theme/dist/css/app.css": "/wp-content/themes/custom-theme/dist/css/app.css"
}
